ignore_key,test_name,is_permanent,reason
7d61470b-97ab-4e5a-b87d-a7a0403df75d,dbt_utils_test_relationship_player_id_stg_player_registration_vs_stg_external_references,true,orphaned registration - customer was asked to make new one. ASTS-10247
4c56fca7-96e9-4fca-afb9-b5a8a2f90918,dbt_utils_test_relationship_player_id_stg_player_registration_vs_stg_external_references,true,orphaned registration - customer was asked to make new one. ASTS-10247
e53e4f92-e7a4-42b8-a325-433380241f65,dbt_utils_test_relationship_player_id_stg_player_registration_vs_stg_external_references,true,orphaned registration - customer was asked to make new one. ASTS-10247
cbcd58b8-e357-4a77-bc41-4cb6e3d9a002,dbt_utils_test_relationship_player_id_stg_player_registration_vs_stg_external_references,true,orphaned registration - customer was asked to make new one. ASTS-10247
6c5717e7-6f63-446b-b66d-3819929bae0d,dbt_utils_test_relationship_player_id_stg_player_registration_vs_stg_external_references,true,orphaned registration - customer was asked to make new one. ASTS-10247
580f2a9e-4046-4e73-a82c-5527f415804b,dbt_utils_test_relationship_player_id_stg_player_registration_vs_stg_external_references,true,orphaned registration - customer was asked to make new one. ASTS-10247
f5796a0e-fc16-487d-bf0b-2e2dc1bc1555,dbt_utils_test_relationship_player_id_stg_player_registration_vs_stg_external_references,false,platform is investigating
293b07ba-a920-4a3d-a583-63079f3bde98,missing_payment_in_transactions,false,platform is investigating. ASTS-10030